{
    "name": "polytopes",
    "version": "0.0.1",
    "dependencies": {
        "requirejs": "ssh://git@bitbucket.uxserver.espial.com:7999/tpp/requirejs.git@develop",
        "jasmine": "ssh://git@bitbucket.uxserver.espial.com:7999/tpp/jasmine.git@develop",
        "blanket": "ssh://git@bitbucket.uxserver.espial.com:7999/tpp/blanket.git@develop",
        "numerus": "ssh://git@bitbucket.uxserver.espial.com:7999/uxfp/numerus.git@develop",
        "eventful": "ssh://git@bitbucket.uxserver.espial.com:7999/uxfp/eventful.git@develop",
        "assertful": "ssh://git@bitbucket.uxserver.espial.com:7999/uxfp/assertful.git@develop",
        "error": "ssh://git@bitbucket.uxserver.espial.com:7999/uxfp/error.git@develop",
        "logger": "ssh://git@bitbucket.uxserver.espial.com:7999/uxfp/logger.git@develop"
    }
}
